[gd_scene load_steps=3 format=2]

[ext_resource path="res://scenes/LootItem.tscn" type="PackedScene" id=1]
[ext_resource path="res://art/M_cactus.png" type="Texture" id=2]

[node name="LootItem" index="0" instance=ExtResource( 1 )]
value = 15

[node name="LootItemSprite" parent="." index="0"]
texture = ExtResource( 2 )

[node name="CollisionPolygon2D" type="CollisionPolygon2D" parent="." index="1"]
polygon = PoolVector2Array( 8.5, -22, 10.5, -22, 10.5, -8, 9.5, -8, 9.5, -6, 8.5, -6, 8.5, -3, 7.5, -3, 7.5, -2, 8.5, -2, 8.5, 1, 6.5, 1, 6.5, 5, 7.5, 5, 7.5, 8, 5.5, 8, 5.5, 11, 9.5, 11, 9.5, 12, 10.5, 12, 10.5, 18, 9.5, 18, 9.5, 21, 8.5, 21, 8.5, 22, -5.5, 22, -5.5, 21, -6.5, 21, -6.5, 18, -7.5, 18, -7.5, 12, -6.5, 12, -6.5, 11, -3.5, 11, -3.5, 10, -4.5, 10, -4.5, 7, -3.5, 7, -3.5, 6, -5.3, 6, -6.3, 4, -7.5, 4, -7.5, 3, -8.5, 3, -8.5, 2, -9.5, 2, -9.5, 1, -12, 1, -12, -2, -11.5, -6, -12, -9, -10.5, -9, -10.5, -13, -7.5, -13, -7.5, -11.8, -5.5, -10.8, -5.5, -13, -4.5, -13, -4.5, -14, -5.5, -14, -5.5, -15, -6.5, -15, -6.5, -18, -2.6, -18, -3.6, -22, 0.5, -22, 0.5, -23.5, 2.9, -23.5, 4.5, -23.1, 8.5, -23.5 )
