[gd_scene load_steps=3 format=2]

[ext_resource path="res://scenes/LootItem.tscn" type="PackedScene" id=1]
[ext_resource path="res://art/M_skateboard.png" type="Texture" id=2]

[node name="LootItem" index="0" instance=ExtResource( 1 )]
value = 30

[node name="LootItemSprite" parent="." index="0"]
texture = ExtResource( 2 )

[node name="CollisionPolygon2D" type="CollisionPolygon2D" parent="." index="1"]
polygon = PoolVector2Array( 7, -19.5, 7, 18.5, -1, 18.5, -1, 17.5, -2, 17.5, -2, 15.5, -3.2, 17.5, -7, 17.5, -7, 16.3, -8.5, 15.6, -8.5, 10.5, -7, 9.7, -7, 8.5, -4, 8.5, -4, 6.5, -3, 6.5, -3, -3.5, -7, -3.5, -7, -4.7, -8.5, -5.4, -8.5, -10.5, -7.8, -10.5, -6.8, -12.5, -4, -12.5, -4, -14.3, -2, -15.3, -2, -17.3, 0, -18.3, 0, -19.5, 1, -19.5, 6, -20 )
